Library\Bee\artifacts\mvdfrm\Unity.2D.Animation.Editor.ref.dll_A13BD6459BB26E0B.mvfrm
Library\Bee\artifacts\mvdfrm\Unity.2D.Animation.Runtime.ref.dll_6747672A37E369F0.mvfrm
Library\Bee\artifacts\mvdfrm\Unity.2D.Common.Editor.ref.dll_BD59A5CBF9D52B22.mvfrm
Library\Bee\artifacts\mvdfrm\Unity.2D.Common.Runtime.ref.dll_77798F371487C3E9.mvfrm
Library\Bee\artifacts\mvdfrm\Unity.2D.IK.Editor.ref.dll_F60355C05B38283B.mvfrm
Library\Bee\artifacts\mvdfrm\Unity.2D.IK.Runtime.ref.dll_16F22BA31A1D34C0.mvfrm
Library\Bee\artifacts\mvdfrm\Unity.2D.Path.Editor.ref.dll_583975DB52C81A78.mvfrm
Library\Bee\artifacts\mvdfrm\Unity.2D.PixelPerfect.Editor.ref.dll_500201FE28D4C516.mvfrm
Library\Bee\artifacts\mvdfrm\Unity.2D.PixelPerfect.ref.dll_88C9F7A57CCB704B.mvfrm
Library\Bee\artifacts\mvdfrm\Unity.2D.Psdimporter.Editor.ref.dll_B76AC6E0D8C9839C.mvfrm
Library\Bee\artifacts\mvdfrm\Unity.2D.Sprite.Editor.ref.dll_DDBAA27A82CE9E28.mvfrm
Library\Bee\artifacts\mvdfrm\Unity.2D.SpriteShape.Editor.ref.dll_1AEEC37E15960FB3.mvfrm
Library\Bee\artifacts\mvdfrm\Unity.2D.SpriteShape.Runtime.ref.dll_BCD600250821B9C8.mvfrm
Library\Bee\artifacts\mvdfrm\Unity.2D.Tilemap.Editor.ref.dll_436C0E2610862891.mvfrm
Library\Bee\artifacts\mvdfrm\Unity.2D.Tilemap.Extras.Editor.ref.dll_8DA00406C36CC6AA.mvfrm
Library\Bee\artifacts\mvdfrm\Unity.2D.Tilemap.Extras.ref.dll_371E356D6F5B6577.mvfrm
Library\Bee\artifacts\mvdfrm\Unity.Burst.Editor.ref.dll_E2F92DAB6C167CC9.mvfrm
Library\Bee\artifacts\mvdfrm\Unity.Burst.ref.dll_F30DFA20C0DD1968.mvfrm
Library\Bee\artifacts\mvdfrm\Unity.InputSystem.ref.dll_FD2EC87C14EBE081.mvfrm
Library\Bee\artifacts\mvdfrm\Unity.InternalAPIEditorBridge.001.ref.dll_C275F416F58A86FE.mvfrm
Library\Bee\artifacts\mvdfrm\Unity.InternalAPIEngineBridge.001.ref.dll_B4F0ACC15A996E43.mvfrm
Library\Bee\artifacts\mvdfrm\Unity.Mathematics.Editor.ref.dll_9A20CFD48BC11F43.mvfrm
Library\Bee\artifacts\mvdfrm\Unity.Mathematics.ref.dll_E8EFDB1B8D5C174E.mvfrm
Library\Bee\artifacts\mvdfrm\Unity.PlasticSCM.Editor.ref.dll_257AEB342BE77856.mvfrm
Library\Bee\artifacts\mvdfrm\Unity.Rider.Editor.ref.dll_9B5591808ABA37AF.mvfrm
Library\Bee\artifacts\mvdfrm\Unity.Services.Core.Analytics.ref.dll_EDA1682A714EA6BF.mvfrm
Library\Bee\artifacts\mvdfrm\Unity.Services.Core.Environments.ref.dll_7E0AC2CDE81D9C6D.mvfrm
Library\Bee\artifacts\mvdfrm\Unity.Services.Core.ref.dll_131AC9C5EC6E6517.mvfrm
Library\Bee\artifacts\mvdfrm\Unity.TextMeshPro.Editor.ref.dll_159E061D77A10B86.mvfrm
Library\Bee\artifacts\mvdfrm\Unity.TextMeshPro.ref.dll_84A4293DBDD182DB.mvfrm
Library\Bee\artifacts\mvdfrm\Unity.Timeline.Editor.ref.dll_0D3D3C0B73557612.mvfrm
Library\Bee\artifacts\mvdfrm\Unity.Timeline.ref.dll_621CDDF9C514DF8F.mvfrm
Library\Bee\artifacts\mvdfrm\Unity.VSCode.Editor.ref.dll_3628369EB48E4C19.mvfrm
Library\Bee\artifacts\mvdfrm\Unity.VisualScripting.Core.Editor.ref.dll_EDC8690F57C5BDFD.mvfrm
Library\Bee\artifacts\mvdfrm\Unity.VisualScripting.Core.ref.dll_D75DF4EA1AFE54F4.mvfrm
Library\Bee\artifacts\mvdfrm\Unity.VisualScripting.Flow.Editor.ref.dll_6AF951BE66A4493E.mvfrm
Library\Bee\artifacts\mvdfrm\Unity.VisualScripting.Flow.ref.dll_1E6ED5409D07C9A3.mvfrm
Library\Bee\artifacts\mvdfrm\Unity.VisualScripting.SettingsProvider.Editor.ref.dll_A1A44354E0B583A8.mvfrm
Library\Bee\artifacts\mvdfrm\Unity.VisualScripting.Shared.Editor.ref.dll_9669F6EBFF6DFFB7.mvfrm
Library\Bee\artifacts\mvdfrm\Unity.VisualScripting.State.Editor.ref.dll_E03858E727F23F6F.mvfrm
Library\Bee\artifacts\mvdfrm\Unity.VisualScripting.State.ref.dll_D91762B7076BE462.mvfrm
Library\Bee\artifacts\mvdfrm\Unity.VisualStudio.Editor.ref.dll_3A975DBA53ABA4AD.mvfrm
Library\Bee\artifacts\mvdfrm\UnityEditor.UI.ref.dll_4C98D3F7040CD4F5.mvfrm
Library\Bee\artifacts\mvdfrm\UnityEngine.UI.ref.dll_08FEAA520A2EFD60.mvfrm
Library\Bee\artifacts\mvdfrm\UnityEditor.CoreModule.dll_26285C8D16E6AA9E.mvfrm
Library\Bee\artifacts\mvdfrm\UnityEditor.DeviceSimulatorModule.dll_4430A0907AEBB783.mvfrm
Library\Bee\artifacts\mvdfrm\UnityEditor.DiagnosticsModule.dll_D25B674BF9E9D111.mvfrm
Library\Bee\artifacts\mvdfrm\UnityEditor.dll_32DD3B3FEC94BC97.mvfrm
Library\Bee\artifacts\mvdfrm\UnityEditor.GraphViewModule.dll_769FA8BF3915FCC8.mvfrm
Library\Bee\artifacts\mvdfrm\UnityEditor.PackageManagerUIModule.dll_D11D879909E99E7A.mvfrm
Library\Bee\artifacts\mvdfrm\UnityEditor.QuickSearchModule.dll_5D6AE85952C0CD6A.mvfrm
Library\Bee\artifacts\mvdfrm\UnityEditor.SceneTemplateModule.dll_270F768DD2CA3D2B.mvfrm
Library\Bee\artifacts\mvdfrm\UnityEditor.TextCoreFontEngineModule.dll_6A755C06577B325C.mvfrm
Library\Bee\artifacts\mvdfrm\UnityEditor.TextCoreTextEngineModule.dll_B25D9277E6FEEB7A.mvfrm
Library\Bee\artifacts\mvdfrm\UnityEditor.UIBuilderModule.dll_CB2855DBABCE75FC.mvfrm
Library\Bee\artifacts\mvdfrm\UnityEditor.UIElementsModule.dll_AE8953E4D6A2411A.mvfrm
Library\Bee\artifacts\mvdfrm\UnityEditor.UIElementsSamplesModule.dll_B675FD5AA42E2FF3.mvfrm
Library\Bee\artifacts\mvdfrm\UnityEditor.UIServiceModule.dll_041A673E9505C616.mvfrm
Library\Bee\artifacts\mvdfrm\UnityEditor.UnityConnectModule.dll_BC4647CA0012A854.mvfrm
Library\Bee\artifacts\mvdfrm\UnityEngine.AccessibilityModule.dll_59B4E224D34064C8.mvfrm
Library\Bee\artifacts\mvdfrm\UnityEngine.AIModule.dll_5B71D2FEC09C5132.mvfrm
Library\Bee\artifacts\mvdfrm\UnityEngine.AndroidJNIModule.dll_2CD23CB81FC1AFF0.mvfrm
Library\Bee\artifacts\mvdfrm\UnityEngine.AnimationModule.dll_452524E81372D16E.mvfrm
Library\Bee\artifacts\mvdfrm\UnityEngine.ARModule.dll_14E498021DB9AFFB.mvfrm
Library\Bee\artifacts\mvdfrm\UnityEngine.AssetBundleModule.dll_A1541B4AB527825C.mvfrm
Library\Bee\artifacts\mvdfrm\UnityEngine.AudioModule.dll_FF592BCD796D26E0.mvfrm
Library\Bee\artifacts\mvdfrm\UnityEngine.ClothModule.dll_664188C8538A05C4.mvfrm
Library\Bee\artifacts\mvdfrm\UnityEngine.ClusterInputModule.dll_3BE2BCDFB19A7B1A.mvfrm
Library\Bee\artifacts\mvdfrm\UnityEngine.ClusterRendererModule.dll_49DD6301EAA6C507.mvfrm
Library\Bee\artifacts\mvdfrm\UnityEngine.CoreModule.dll_49492FDFBEEC15C9.mvfrm
Library\Bee\artifacts\mvdfrm\UnityEngine.CrashReportingModule.dll_5584CF080B97A101.mvfrm
Library\Bee\artifacts\mvdfrm\UnityEngine.DirectorModule.dll_FD0E62DB26F70E26.mvfrm
Library\Bee\artifacts\mvdfrm\UnityEngine.dll_658182184B08497C.mvfrm
Library\Bee\artifacts\mvdfrm\UnityEngine.DSPGraphModule.dll_025FC4449957DF47.mvfrm
Library\Bee\artifacts\mvdfrm\UnityEngine.GameCenterModule.dll_571F86D2E602A0E1.mvfrm
Library\Bee\artifacts\mvdfrm\UnityEngine.GIModule.dll_F3AE1C0C5C4B394C.mvfrm
Library\Bee\artifacts\mvdfrm\UnityEngine.GridModule.dll_26BA4BCDD740ABC0.mvfrm
Library\Bee\artifacts\mvdfrm\UnityEngine.HotReloadModule.dll_C66DE2EDEEA5ECF0.mvfrm
Library\Bee\artifacts\mvdfrm\UnityEngine.ImageConversionModule.dll_B5CF60B26CCB7CFB.mvfrm
Library\Bee\artifacts\mvdfrm\UnityEngine.IMGUIModule.dll_37B8CB343F9EBAC1.mvfrm
Library\Bee\artifacts\mvdfrm\UnityEngine.InputLegacyModule.dll_329936694D19384D.mvfrm
Library\Bee\artifacts\mvdfrm\UnityEngine.InputModule.dll_65CEF37DEFA54B84.mvfrm
Library\Bee\artifacts\mvdfrm\UnityEngine.JSONSerializeModule.dll_B9CC6B60D27BC552.mvfrm
Library\Bee\artifacts\mvdfrm\UnityEngine.LocalizationModule.dll_7A2F873249166E13.mvfrm
Library\Bee\artifacts\mvdfrm\UnityEngine.ParticleSystemModule.dll_A897185479A92C8F.mvfrm
Library\Bee\artifacts\mvdfrm\UnityEngine.PerformanceReportingModule.dll_EC2045BBD209B388.mvfrm
Library\Bee\artifacts\mvdfrm\UnityEngine.Physics2DModule.dll_91CB14D8B46FC903.mvfrm
Library\Bee\artifacts\mvdfrm\UnityEngine.PhysicsModule.dll_CF29FD6E5F006DB1.mvfrm
Library\Bee\artifacts\mvdfrm\UnityEngine.ProfilerModule.dll_2F549C11C0509533.mvfrm
Library\Bee\artifacts\mvdfrm\UnityEngine.RuntimeInitializeOnLoadManagerInitializerModule.dll_0C11EA9DFF2FBFCC.mvfrm
Library\Bee\artifacts\mvdfrm\UnityEngine.ScreenCaptureModule.dll_D3B418E5E6E7F1B4.mvfrm
Library\Bee\artifacts\mvdfrm\UnityEngine.SharedInternalsModule.dll_39E09F87E3F9784B.mvfrm
Library\Bee\artifacts\mvdfrm\UnityEngine.SpriteMaskModule.dll_404BF9630772365B.mvfrm
Library\Bee\artifacts\mvdfrm\UnityEngine.SpriteShapeModule.dll_BAB548A56AC9BA66.mvfrm
Library\Bee\artifacts\mvdfrm\UnityEngine.StreamingModule.dll_F9BA123862FA88AC.mvfrm
Library\Bee\artifacts\mvdfrm\UnityEngine.SubstanceModule.dll_D6652681AE4D86BA.mvfrm
Library\Bee\artifacts\mvdfrm\UnityEngine.SubsystemsModule.dll_AAF95FC4D5BA1E6E.mvfrm
Library\Bee\artifacts\mvdfrm\UnityEngine.TerrainModule.dll_E97078DD34BEB69F.mvfrm
Library\Bee\artifacts\mvdfrm\UnityEngine.TerrainPhysicsModule.dll_A911C12792EC271C.mvfrm
Library\Bee\artifacts\mvdfrm\UnityEngine.TextCoreFontEngineModule.dll_E8D4D7596A78F127.mvfrm
Library\Bee\artifacts\mvdfrm\UnityEngine.TextCoreTextEngineModule.dll_30BD0DCAF9FCAA45.mvfrm
Library\Bee\artifacts\mvdfrm\UnityEngine.TextRenderingModule.dll_FCF38AF09E1F71A9.mvfrm
Library\Bee\artifacts\mvdfrm\UnityEngine.TilemapModule.dll_886CE05E4C7B97A8.mvfrm
Library\Bee\artifacts\mvdfrm\UnityEngine.TLSModule.dll_2E012F5ED4E26A45.mvfrm
Library\Bee\artifacts\mvdfrm\UnityEngine.UIElementsModule.dll_AF37C12CD8E65A65.mvfrm
Library\Bee\artifacts\mvdfrm\UnityEngine.UIElementsNativeModule.dll_1B973C2E7B620E9C.mvfrm
Library\Bee\artifacts\mvdfrm\UnityEngine.UIModule.dll_56E5712C1CE356DE.mvfrm
Library\Bee\artifacts\mvdfrm\UnityEngine.UmbraModule.dll_7A2DD7E60693D253.mvfrm
Library\Bee\artifacts\mvdfrm\UnityEngine.UNETModule.dll_DBEF77C90BFB0B42.mvfrm
Library\Bee\artifacts\mvdfrm\UnityEngine.UnityAnalyticsModule.dll_C836891E25D07E8B.mvfrm
Library\Bee\artifacts\mvdfrm\UnityEngine.UnityConnectModule.dll_A9A5CBD8FA9AA8FF.mvfrm
Library\Bee\artifacts\mvdfrm\UnityEngine.UnityCurlModule.dll_7841C6198386C35B.mvfrm
Library\Bee\artifacts\mvdfrm\UnityEngine.UnityTestProtocolModule.dll_7238B34CFE298549.mvfrm
Library\Bee\artifacts\mvdfrm\UnityEngine.UnityWebRequestAssetBundleModule.dll_8EE985D84584119C.mvfrm
Library\Bee\artifacts\mvdfrm\UnityEngine.UnityWebRequestAudioModule.dll_641C999A58747E20.mvfrm
Library\Bee\artifacts\mvdfrm\UnityEngine.UnityWebRequestModule.dll_C76E685C77C0177A.mvfrm
Library\Bee\artifacts\mvdfrm\UnityEngine.UnityWebRequestTextureModule.dll_200DE2F919E217F5.mvfrm
Library\Bee\artifacts\mvdfrm\UnityEngine.UnityWebRequestWWWModule.dll_FB7F5326E9BC66B1.mvfrm
Library\Bee\artifacts\mvdfrm\UnityEngine.VehiclesModule.dll_74D15C5AA120DDC1.mvfrm
Library\Bee\artifacts\mvdfrm\UnityEngine.VFXModule.dll_AEDFC7CDAB4FD3B2.mvfrm
Library\Bee\artifacts\mvdfrm\UnityEngine.VideoModule.dll_2462B0383BFF4285.mvfrm
Library\Bee\artifacts\mvdfrm\UnityEngine.VirtualTexturingModule.dll_4023F09D54108F27.mvfrm
Library\Bee\artifacts\mvdfrm\UnityEngine.VRModule.dll_A9B797B1BE9DDC56.mvfrm
Library\Bee\artifacts\mvdfrm\UnityEngine.WindModule.dll_BF980B0850229432.mvfrm
Library\Bee\artifacts\mvdfrm\UnityEngine.XRModule.dll_DC765AB647D829B4.mvfrm
Library\Bee\artifacts\mvdfrm\Unity.Burst.Cecil.dll_DACA0DDC2250E7B9.mvfrm
Library\Bee\artifacts\mvdfrm\Unity.Burst.Cecil.Mdb.dll_0F8BDEF53205D136.mvfrm
Library\Bee\artifacts\mvdfrm\Unity.Burst.Cecil.Pdb.dll_26DE5764B0BAD2B9.mvfrm
Library\Bee\artifacts\mvdfrm\Unity.Burst.Cecil.Rocks.dll_ED31791F0818D3F9.mvfrm
Library\Bee\artifacts\mvdfrm\Unity.Burst.Unsafe.dll_152B9D0AC2ACF20A.mvfrm
Library\Bee\artifacts\mvdfrm\Unity.VisualScripting.Antlr3.Runtime.dll_4806425016454112.mvfrm